<?xml version="1.0" encoding="utf-8"?>
<!-- Generator: Adobe Illustrator 21.0.0, SVG Export Plug-In . SVG Version: 6.00 Build 0)  -->
<svg version="1.1" id="Layer_1" xmlns="http://www.w3.org/2000/svg" xmlns:xlink="http://www.w3.org/1999/xlink" x="0px" y="0px"
	 viewBox="0 0 128 128" style="enable-background:new 0 0 128 128;" xml:space="preserve">
<style type="text/css">
	.st0{fill:#FFFFFF;}
</style>
<path class="st0" d="M102.1,69.7c2.3,4,3.6,8.7,3.6,13.7c0,0.3,0,0.3,0,0.6l-0.1,4.4l4.3,1.1c7.3,1.9,12.5,8.5,12.5,16.1
	c0,9.2-7.5,16.7-16.7,16.7H22.3c-9.2,0-16.7-7.5-16.7-16.7c0-7.2,4.7-13.4,11.1-15.7v-5.8C7.1,86.6,0,95.3,0,105.6
	c0,12.3,10,22.2,22.3,22.2h83.4c12.3,0,22.3-10,22.3-22.2c0-10.3-7.1-19-16.7-21.5c0-0.2,0-0.5,0-0.7c0-7-2.2-13.5-5.9-18.9
	C104.4,66.3,103.3,68,102.1,69.7 M91.9,55.6H64c-3.1,0-6-1-8.3-2.8v29.7c2.7,0.5,5.5,0.8,8.3,0.8c20,0,36.7-14,40.8-32.7
	C101.3,53.7,96.8,55.6,91.9,55.6 M36.1,33.4c-7.6,0-13.9,6.2-13.9,13.9v50c0,7.6,6.2,13.9,13.9,13.9c7.7,0,13.9-6.2,13.9-13.9V83.6
	V41.7c0-3.1,1-6,2.8-8.3H36.1z M77.9,13.9v27.8c0,3.1-1,6-2.8,8.3h16.7c6.9,0,12.8-5.2,13.7-11.9C104,19.8,90.6,4.8,73,1
	C76,4.4,77.9,8.9,77.9,13.9 M23.2,32.7c3.4-3.1,8-4.9,12.9-4.9H64c3.1,0,6,1,8.3,2.8V13.9c0-6.9-5.2-12.7-11.9-13.7
	C42.1,1.7,27.1,15.1,23.2,32.7"/>
</svg>
