<?xml version="1.0" encoding="utf-8"?>
<!-- Generator: Adobe Illustrator 21.0.0, SVG Export Plug-In . SVG Version: 6.00 Build 0)  -->
<svg version="1.1" id="Layer_1" xmlns="http://www.w3.org/2000/svg" xmlns:xlink="http://www.w3.org/1999/xlink" x="0px" y="0px"
	 viewBox="0 0 128 128" style="enable-background:new 0 0 128 128;" xml:space="preserve">
<style type="text/css">
	.st0{fill-rule:evenodd;clip-rule:evenodd;fill:#FFFFFF;}
</style>
<g>
	<path class="st0" d="M46.5,46.1c-2,2-2,5.2,0,7.2c2,2,5.2,2,7.2,0c2-2,2-5.2,0-7.2C51.7,44.1,48.5,44.1,46.5,46.1z"/>
	<path class="st0" d="M64,0C28.7,0,0,28.7,0,64c0,35.3,28.7,64,64,64c35.3,0,64-28.7,64-64C128,28.7,99.3,0,64,0z M96.3,75.6
		c-3.1,3.1-17.8,17.7-20.5,20.4c-2.7,2.6-6.4,2.4-8.8-0.1L38.4,67.4c-1.7-1.7-4.2-2.9-2.7-7.9l3.8-19l1.1-1.1l19.2-3.8
		c5-1.5,6.2,1,8,2.7l28.5,28.4C98.7,69.2,97.9,74,96.3,75.6z"/>
</g>
</svg>
