<?xml version="1.0" encoding="utf-8"?>
<!-- Generator: Adobe Illustrator 21.0.0, SVG Export Plug-In . SVG Version: 6.00 Build 0)  -->
<svg version="1.1" id="Layer_1" xmlns="http://www.w3.org/2000/svg" xmlns:xlink="http://www.w3.org/1999/xlink" x="0px" y="0px"
	 viewBox="0 0 128 128" style="enable-background:new 0 0 128 128;" xml:space="preserve">
<style type="text/css">
	.st0{fill:#FFFFFF;}
</style>
<g>
	<path class="st0" d="M85.6,104c-0.9-1.9-1-4-0.3-6c0.4-1.1,1-2.1,1.9-2.9c-0.7-1.8-0.9-3.8-0.2-5.7c0.5-1.5,1.4-2.7,2.6-3.6
		c-0.9-1.9-0.9-4.1-0.2-6.1c0.6-1.8,1.9-3.3,3.5-4.3c-0.4-1.7-0.3-3.5,0.3-5.2c1.3-3.8,5-6.3,9-6.3c1.1,0,2.2,0.2,3.2,0.6l4.6,1.6
		l3-8.4c0-0.1,0.1-0.2,0.1-0.3c-3.2-24.2-24-42.9-49.1-42.9c-25.1,0-45.8,18.7-49.1,42.9c0,0.1,0.1,0.2,0.1,0.3l3,8.4l4.6-1.6
		c1-0.4,2.1-0.6,3.2-0.6c4,0,7.6,2.5,9,6.3c0.6,1.7,0.7,3.5,0.3,5.2c1.6,1,2.9,2.5,3.5,4.3c0.7,2.1,0.6,4.2-0.2,6.1
		c1.1,0.9,2,2.1,2.6,3.5c0,0,0,0.1,0,0.1c0.7,1.8,0.5,3.9-0.2,5.6c0.8,0.8,1.5,1.8,1.9,2.9c0.7,2,0.6,4.1-0.3,6
		c-0.6,1.3-1.6,2.4-2.7,3.1c7.2,4.1,15.5,6.4,24.3,6.4c8.9,0,17.2-2.3,24.3-6.4C87.2,106.4,86.2,105.3,85.6,104z M82.7,40.6
		c3.5,0,6.4,2.9,6.4,6.4c0,3.5-2.9,6.4-6.4,6.4c-3.5,0-6.4-2.9-6.4-6.4C76.4,43.5,79.2,40.6,82.7,40.6z M38.9,47
		c0-3.5,2.9-6.4,6.4-6.4c3.5,0,6.4,2.9,6.4,6.4c0,3.5-2.9,6.4-6.4,6.4C41.7,53.4,38.9,50.5,38.9,47z M64,86.8
		c-8.4,0-16.1-4.3-20.6-11.4c-0.9-1.5-0.5-3.4,1-4.3c1.5-0.9,3.4-0.5,4.3,1c3.3,5.3,9.1,8.5,15.3,8.5c6.3,0,12-3.2,15.3-8.5
		c0.9-1.5,2.8-1.9,4.3-1c1.5,0.9,1.9,2.8,1,4.3C80.1,82.6,72.4,86.8,64,86.8z"/>
	<path class="st0" d="M39.8,99.1c-0.6-1.7-2-2.7-3.6-3c1.8-1.1,2.7-3.4,1.9-5.5l0-0.1c-0.9-2.4-3.5-3.7-6-2.8l0.5-0.2
		c2.7-1,4.1-3.9,3.1-6.6c-0.7-2.1-2.7-3.4-4.8-3.4c1.3-1.7,1.8-3.9,1-6.1c-1.2-3.3-4.9-5.1-8.2-3.9l-7.5,2.7l-4-11.3
		c-1.2-3.3-4.7-5-8-3.8c-3.3,1.2-5,4.7-3.8,8l5,14.2c-1.6,2.5-2.1,5.5-1.1,8.4l7.3,20.4c1.8,5.2,7.9,7.7,13.5,5.7l3.4-1.2
		c2.4-0.9,4.4-2.5,5.6-4.5l2.9-1C39.4,104.2,40.6,101.5,39.8,99.1z M31.8,87.8L31.8,87.8l0.3-0.2C32,87.7,31.9,87.7,31.8,87.8z"/>
	<path class="st0" d="M123.8,54.9c-3.3-1.2-6.8,0.5-8,3.8l-4,11.3l-7.5-2.7c-3.3-1.2-7,0.6-8.2,3.9c-0.8,2.1-0.3,4.4,1,6.1
		c-2.1,0-4.1,1.3-4.8,3.4c-1,2.7,0.4,5.7,3.1,6.6l0.5,0.2c-2.4-0.9-5.1,0.4-6,2.8l0,0.1c-0.8,2.1,0.1,4.4,1.9,5.5
		c-1.6,0.3-3,1.4-3.6,3c-0.9,2.4,0.4,5.1,2.8,6l2.9,1c1.3,2,3.2,3.6,5.6,4.5l3.4,1.2c5.6,2,11.6-0.6,13.5-5.7l7.3-20.4
		c1-2.9,0.5-5.9-1.1-8.4l5-14.2C128.8,59.7,127.1,56.1,123.8,54.9z M96.3,87.7L96.3,87.7c-0.1,0-0.2-0.1-0.3-0.1L96.3,87.7z"/>
</g>
</svg>
